MIPS_Monocycle/sim/tarefa1/simulation2.vcd
$date
  Fri Mar 21 01:09:09 2025
$end
$version
  GHDL v0
$end
$timescale
  1 fs
$end
$scope module standard $end
$upscope $end
$scope module std_logic_1164 $end
$upscope $end
$scope module numeric_std $end
$upscope $end
$scope module mips_pkg $end
$upscope $end
$scope module textio $end
$upscope $end
$scope module util_pkg $end
$upscope $end
$scope module mips_monocycle_tb $end
$var reg 1 ! clk $end
$var reg 1 " rst $end
$var reg 1 # ce $end
$var reg 1 $ clk_n $end
$var reg 4 % wbe[3:0] $end
$var reg 32 & instructionaddress[31:0] $end
$var reg 32 ' dataaddress[31:0] $end
$var reg 32 ( instruction[31:0] $end
$var reg 32 ) data_in[31:0] $end
$var reg 32 * data_out[31:0] $end
$scope module mips_monocycle $end
$var reg 1 + clk $end
$var reg 1 , rst $end
$var reg 32 - instructionaddress[31:0] $end
$var reg 32 . instruction[31:0] $end
$var reg 32 / dataaddress[31:0] $end
$var reg 32 0 data_in[31:0] $end
$var reg 32 1 data_out[31:0] $end
$var reg 1 2 ce $end
$var reg 4 3 wbe[3:0] $end
$var reg 32 4 pc[31:0] $end
$var reg 32 5 readdata2[31:0] $end
$var reg 32 6 writedata[31:0] $end
$var reg 32 7 instructionfetchaddress[31:0] $end
$var reg 32 8 signextended[31:0] $end
$var reg 32 9 zeroextended[31:0] $end
$var reg 32 : aluoperand1[31:0] $end
$var reg 32 ; aluoperand2[31:0] $end
$var reg 32 < result[31:0] $end
$var reg 32 = branchoffset[31:0] $end
$var reg 32 > branchtarget[31:0] $end
$var reg 32 ? jumptarget[31:0] $end
$var reg 5 @ writeregister[4:0] $end
$var reg 1 A regwrite $end
$comment registerfile is not handled $end
$var reg 1 B zero $end
$var reg 1 C lock $end
$comment decodedinstruction is not handled $end
$upscope $end
$scope module instruction_memory $end
$var reg 1 D clk $end
$var reg 4 E wbe[3:0] $end
$var reg 1 F ce $end
$var reg 30 G address[29:0] $end
$var reg 32 H data_in[31:0] $end
$var reg 32 I data_out[31:0] $end
$comment memoryarray is not handled $end
$var integer 32 J arrayaddress $end
$upscope $end
$scope module data_memory $end
$var reg 1 K clk $end
$var reg 4 L wbe[3:0] $end
$var reg 1 M ce $end
$var reg 30 N address[29:0] $end
$var reg 32 O data_in[31:0] $end
$var reg 32 P data_out[31:0] $end
$comment memoryarray is not handled $end
$var integer 32 Q arrayaddress $end
$upscope $end
$upscope $end
$enddefinitions $end
#0
0!
1"
0#
1$
b0000 %
b00000000010000000000000000000000 &
bXXXXXXXXXXXXXXXXXXXXXXXXXXXXXXXX '
bUUUUUUUUUUUUUUUUUUUUUUUUUUUUUUUU (
bUUUUUUUUUUUUUUUUUUUUUUUUUUUUUUUU )
b00000000000000000000000000000000 *
0+
1,
b00000000010000000000000000000000 -
bUUUUUUUUUUUUUUUUUUUUUUUUUUUUUUUU .
bXXXXXXXXXXXXXXXXXXXXXXXXXXXXXXXX /
bUUUUUUUUUUUUUUUUUUUUUUUUUUUUUUUU 0
b00000000000000000000000000000000 1
02
b0000 3
b00000000010000000000000000000000 4
b00000000000000000000000000000000 5
bXXXXXXXXXXXXXXXXXXXXXXXXXXXXXXXX 6
b00000000010000000000000000000000 7
bUUUUUUUUUUUUUUUUUUUUUUUUUUUUUUUU 8
b0000000000000000UUUUUUUUUUUUUUUU 9
b00000000000000000000000000000000 :
bUUUUUUUUUUUUUUUUUUUUUUUUUUUUUUUU ;
bXXXXXXXXXXXXXXXXXXXXXXXXXXXXXXXX <
bUUUUUUUUUUUUUUUUUUUUUUUUUUUUUU00 =
bXXXXXXXXXXXXXXXXXXXXXXXXXXXXXXXX >
b0000UUUUUUUUUUUUUUUUUUUUUUUUUU00 ?
bUUUUU @
0A
0B
1C
0D
b0000 E
1F
b000000000100000000000000000000 G
b00000000000000000000000000000000 H
bUUUUUUUUUUUUUUUUUUUUUUUUUUUUUUUU I
b0 J
1K
b0000 L
0M
bXXXXXXXXXXXXXXXXXXXXXXXXXXXXXX N
b00000000000000000000000000000000 O
bUUUUUUUUUUUUUUUUUUUUUUUUUUUUUUUU P
b0 Q
#2000000
0"
0,
#5000000
1!
0$
b00000000010000000000000000000100 &
b00000000000000000000000000000001 '
b00100100000110000000000000000001 (
bUUUUUUUUUUUUUUUUUUUUUUUUUUUUUUUU *
1+
b00000000010000000000000000000100 -
b00100100000110000000000000000001 .
b00000000000000000000000000000001 /
bUUUUUUUUUUUUUUUUUUUUUUUUUUUUUUUU 1
b00000000010000000000000000000100 4
bUUUUUUUUUUUUUUUUUUUUUUUUUUUUUUUU 5
b00000000000000000000000000000001 6
b00000000010000000000000000000100 7
b00000000000000000000000000000001 8
b00000000000000000000000000000001 9
b00000000000000000000000000000001 ;
b00000000000000000000000000000001 <
b00000000000000000000000000000100 =
b00000000010000000000000000001000 >
b00000000011000000000000000000100 ?
b11000 @
1A
0C
1D
b000000000100000000000000000001 G
b00100100000110000000000000000001 I
b1 J
0K
b000000000000000000000000000000 N
bUUUUUUUUUUUUUUUUUUUUUUUUUUUUUUUU O
b111011111111111100000000000000 Q
#10000000
0!
1$
0+
0D
1K
#15000000
1!
0$
b00000000010000000000000000001000 &
b00000000000000000000000000000001 '
b00010011000000000000000000011000 (
b00000000000000000000000000000000 *
1+
b00000000010000000000000000001000 -
b00010011000000000000000000011000 .
b00000000000000000000000000000001 /
b00000000000000000000000000000000 1
b00000000010000000000000000001000 4
b00000000000000000000000000000000 5
b00000000000000000000000000000001 6
b00000000010000000000000000001000 7
b00000000000000000000000000011000 8
b00000000000000000000000000011000 9
b00000000000000000000000000000001 :
b00000000000000000000000000000000 ;
b00000000000000000000000000000001 <
b00000000000000000000000001100000 =
b00000000010000000000000001101000 >
b00001100000000000000000001100000 ?
b00000 @
0A
0B
1D
b000000000100000000000000000010 G
b00010011000000000000000000011000 I
b10 J
0K
b00000000000000000000000000000000 O
#20000000
0!
1$
0+
0D
1K
#25000000
1!
0$
b00000000010000000000000000001100 &
b00010000000000010000000000000000 '
b00111100000000010001000000000001 (
bUUUUUUUUUUUUUUUUUUUUUUUUUUUUUUUU *
1+
b00000000010000000000000000001100 -
b00111100000000010001000000000001 .
b00010000000000010000000000000000 /
bUUUUUUUUUUUUUUUUUUUUUUUUUUUUUUUU 1
b00000000010000000000000000001100 4
bUUUUUUUUUUUUUUUUUUUUUUUUUUUUUUUU 5
b00010000000000010000000000000000 6
b00000000010000000000000000001100 7
b00000000000000000001000000000001 8
b00000000000000000001000000000001 9
b00000000000000000000000000000000 :
b00000000000000000001000000000001 ;
b00010000000000010000000000000000 <
b00000000000000000100000000000100 =
b00000000010000000100000000010000 >
b00000000000001000100000000000100 ?
b00001 @
1A
0B
1D
b000000000100000000000000000011 G
b00111100000000010001000000000001 I
b11 J
0K
b000100000000000100000000000000 N
bUUUUUUUUUUUUUUUUUUUUUUUUUUUUUUUU O
b0 Q
#30000000
0!
1$
0+
0D
1K
#35000000
1!
0$
b00000000010000000000000000010000 &
b00010000000000010000000000000000 '
b00110100001010000000000000000000 (
1+
b00000000010000000000000000010000 -
b00110100001010000000000000000000 .
b00010000000000010000000000000000 /
b00000000010000000000000000010000 4
b00010000000000010000000000000000 6
b00000000010000000000000000010000 7
b00000000000000000000000000000000 8
b00000000000000000000000000000000 9
b00010000000000010000000000000000 :
b00000000000000000000000000000000 ;
b00010000000000010000000000000000 <
b00000000000000000000000000000000 =
b00000000010000000000000000010000 >
b00000000101000000000000000000000 ?
b01000 @
1D
b000000000100000000000000000100 G
b00110100001010000000000000000000 I
b100 J
0K
b000100000000000100000000000000 N
b0 Q
#40000000
0!
1$
0+
0D
1K
#45000000
1!
0$
b00000000010000000000000000010100 &
b00010000000000010000000000000000 '
b00111100000000010001000000000001 (
b00010000000000010000000000000000 *
1+
b00000000010000000000000000010100 -
b00111100000000010001000000000001 .
b00010000000000010000000000000000 /
b00010000000000010000000000000000 1
b00000000010000000000000000010100 4
b00010000000000010000000000000000 5
b00010000000000010000000000000000 6
b00000000010000000000000000010100 7
b00000000000000000001000000000001 8
b00000000000000000001000000000001 9
b00000000000000000000000000000000 :
b00000000000000000001000000000001 ;
b00010000000000010000000000000000 <
b00000000000000000100000000000100 =
b00000000010000000100000000011000 >
b00000000000001000100000000000100 ?
b00001 @
0B
1D
b000000000100000000000000000101 G
b00111100000000010001000000000001 I
b101 J
0K
b000100000000000100000000000000 N
b00010000000000010000000000000000 O
b0 Q
#50000000
0!
1$
0+
0D
1K
#55000000
1!
0$
b00000000010000000000000000011000 &
b00010000000000010000000000101000 '
b00110100001011100000000000101000 (
bUUUUUUUUUUUUUUUUUUUUUUUUUUUUUUUU *
1+
b00000000010000000000000000011000 -
b00110100001011100000000000101000 .
b00010000000000010000000000101000 /
bUUUUUUUUUUUUUUUUUUUUUUUUUUUUUUUU 1
b00000000010000000000000000011000 4
bUUUUUUUUUUUUUUUUUUUUUUUUUUUUUUUU 5
b00010000000000010000000000101000 6
b00000000010000000000000000011000 7
b00000000000000000000000000101000 8
b00000000000000000000000000101000 9
b00010000000000010000000000000000 :
b00000000000000000000000000101000 ;
b00010000000000010000000000101000 <
b00000000000000000000000010100000 =
b00000000010000000000000010111000 >
b00000000101110000000000010100000 ?
b01110 @
1D
b000000000100000000000000000110 G
b00110100001011100000000000101000 I
b110 J
0K
b000100000000000100000000001010 N
bUUUUUUUUUUUUUUUUUUUUUUUUUUUUUUUU O
b1010 Q
#60000000
0!
1$
0+
0D
1K
#65000000
1!
1#
0$
b00000000010000000000000000011100 &
b00010000000000010000000000101000 '
b10001101110011100000000000000000 (
b00010000000000010000000000101000 *
1+
b00000000010000000000000000011100 -
b10001101110011100000000000000000 .
b00010000000000010000000000101000 /
b00010000000000010000000000101000 1
12
b00000000010000000000000000011100 4
b00010000000000010000000000101000 5
bUUUUUUUUUUUUUUUUUUUUUUUUUUUUUUUU 6
b00000000010000000000000000011100 7
b00000000000000000000000000000000 8
b00000000000000000000000000000000 9
b00010000000000010000000000101000 :
b00000000000000000000000000000000 ;
b00010000000000010000000000101000 <
b00000000000000000000000000000000 =
b00000000010000000000000000011100 >
b00000111001110000000000000000000 ?
1D
b000000000100000000000000000111 G
b10001101110011100000000000000000 I
b111 J
0K
1M
b000100000000000100000000001010 N
b00010000000000010000000000101000 O
b1010 Q
#70000000
0!
1$
b00000000000000000000000000001010 )
0+
b00000000000000000000000000001010 0
b00000000000000000000000000001010 6
0D
1K
b00000000000000000000000000001010 P
#75000000
1!
0#
0$
b00000000010000000000000000100000 &
b00000000000000000000000000001001 '
b00100101110011101111111111111111 (
b00000000000000000000000000001010 *
1+
b00000000010000000000000000100000 -
b00100101110011101111111111111111 .
b00000000000000000000000000001001 /
b00000000000000000000000000001010 1
02
b00000000010000000000000000100000 4
b00000000000000000000000000001010 5
b00000000000000000000000000001001 6
b00000000010000000000000000100000 7
b11111111111111111111111111111111 8
b00000000000000001111111111111111 9
b00000000000000000000000000001010 :
b11111111111111111111111111111111 ;
b00000000000000000000000000001001 <
b11111111111111111111111111111100 =
b00000000010000000000000000011100 >
b00000111001110111111111111111100 ?
1D
b000000000100000000000000001000 G
b00100101110011101111111111111111 I
b1000 J
0K
0M
b000000000000000000000000000010 N
b00000000000000000000000000001010 O
b111011111111111100000000000010 Q
#80000000
0!
1$
0+
0D
1K
#85000000
1!
0$
b00000000010000000000000000100100 &
b00000000000000000000000000000000 '
b00100100000110000000000000000000 (
b00000000000000000000000000000001 *
1+
b00000000010000000000000000100100 -
b00100100000110000000000000000000 .
b00000000000000000000000000000000 /
b00000000000000000000000000000001 1
b00000000010000000000000000100100 4
b00000000000000000000000000000001 5
b00000000000000000000000000000000 6
b00000000010000000000000000100100 7
b00000000000000000000000000000000 8
b00000000000000000000000000000000 9
b00000000000000000000000000000000 :
b00000000000000000000000000000000 ;
b00000000000000000000000000000000 <
b00000000000000000000000000000000 =
b00000000010000000000000000100100 >
b00000000011000000000000000000000 ?
b11000 @
1B
1D
b000000000100000000000000001001 G
b00100100000110000000000000000000 I
b1001 J
0K
b000000000000000000000000000000 N
b00000000000000000000000000000001 O
b111011111111111100000000000000 Q
#90000000
0!
1$
0+
0D
1K
#95000000
1!
0$
b00000000010000000000000000101000 &
b00000000000000000000000000001001 '
b00010001110000001111111111110111 (
b00000000000000000000000000000000 *
1+
b00000000010000000000000000101000 -
b00010001110000001111111111110111 .
b00000000000000000000000000001001 /
b00000000000000000000000000000000 1
b00000000010000000000000000101000 4
b00000000000000000000000000000000 5
b00000000000000000000000000001001 6
b00000000010000000000000000101000 7
b11111111111111111111111111110111 8
b00000000000000001111111111110111 9
b00000000000000000000000000001001 :
b00000000000000000000000000001001 <
b11111111111111111111111111011100 =
b00000000010000000000000000000100 >
b00000111000000111111111111011100 ?
b00000 @
0A
0B
1D
b000000000100000000000000001010 G
b00010001110000001111111111110111 I
b1010 J
0K
b000000000000000000000000000010 N
b00000000000000000000000000000000 O
b111011111111111100000000000010 Q
#100000000
0!
1$
0+
0D
1K
#105000000
1!
1#
0$
b00000000010000000000000000101100 &
b00010000000000010000000000000000 '
b10001101000010010000000000000000 (
bUUUUUUUUUUUUUUUUUUUUUUUUUUUUUUUU *
1+
b00000000010000000000000000101100 -
b10001101000010010000000000000000 .
b00010000000000010000000000000000 /
bUUUUUUUUUUUUUUUUUUUUUUUUUUUUUUUU 1
12
b00000000010000000000000000101100 4
bUUUUUUUUUUUUUUUUUUUUUUUUUUUUUUUU 5
b00000000000000000000000000001010 6
b00000000010000000000000000101100 7
b00000000000000000000000000000000 8
b00000000000000000000000000000000 9
b00010000000000010000000000000000 :
b00010000000000010000000000000000 <
b00000000000000000000000000000000 =
b00000000010000000000000000101100 >
b00000100001001000000000000000000 ?
b01001 @
1A
1D
b000000000100000000000000001011 G
b10001101000010010000000000000000 I
b1011 J
0K
1M
b000100000000000100000000000000 N
bUUUUUUUUUUUUUUUUUUUUUUUUUUUUUUUU O
b0 Q
#110000000
0!
1$
b00000000000000000000000000000100 )
0+
b00000000000000000000000000000100 0
b00000000000000000000000000000100 6
0D
1K
b00000000000000000000000000000100 P
#115000000
1!
0$
b00000000010000000000000000110000 &
b00010000000000010000000000000100 '
b10001101000010100000000000000100 (
1+
b00000000010000000000000000110000 -
b10001101000010100000000000000100 .
b00010000000000010000000000000100 /
b00000000010000000000000000110000 4
b00000000010000000000000000110000 7
b00000000000000000000000000000100 8
b00000000000000000000000000000100 9
b00000000000000000000000000000100 ;
b00010000000000010000000000000100 <
b00000000000000000000000000010000 =
b00000000010000000000000001000000 >
b00000100001010000000000000010000 ?
b01010 @
1D
b000000000100000000000000001100 G
b10001101000010100000000000000100 I
b1100 J
0K
b000100000000000100000000000001 N
b1 Q
#120000000
0!
1$
b00000000000000000000000000000010 )
0+
b00000000000000000000000000000010 0
b00000000000000000000000000000010 6
0D
1K
b00000000000000000000000000000010 P
#125000000
1!
0#
0$
b00000000010000000000000000110100 &
b00000000000000000000000000000001 '
b00000001010010010111100000101010 (
b00000000000000000000000000000100 *
1+
b00000000010000000000000000110100 -
b00000001010010010111100000101010 .
b00000000000000000000000000000001 /
b00000000000000000000000000000100 1
02
b00000000010000000000000000110100 4
b00000000000000000000000000000100 5
b00000000000000000000000000000001 6
b00000000010000000000000000110100 7
b00000000000000000111100000101010 8
b00000000000000000111100000101010 9
b00000000000000000000000000000010 :
b00000000000000000000000000000100 ;
b00000000000000000000000000000001 <
b00000000000000011110000010101000 =
b00000000010000011110000011011100 >
b00000101001001011110000010101000 ?
b01111 @
0B
1D
b000000000100000000000000001101 G
b00000001010010010111100000101010 I
b1101 J
0K
0M
b000000000000000000000000000000 N
b00000000000000000000000000000100 O
b111011111111111100000000000000 Q
#130000000
0!
1$
0+
0D
1K
#135000000
1!
0$
b00000000010000000000000000111000 &
b00000000000000000000000000000001 '
b00010001111000000000000000000100 (
b00000000000000000000000000000000 *
1+
b00000000010000000000000000111000 -
b00010001111000000000000000000100 .
b00000000000000000000000000000001 /
b00000000000000000000000000000000 1
b00000000010000000000000000111000 4
b00000000000000000000000000000000 5
b00000000000000000000000000000001 6
b00000000010000000000000000111000 7
b00000000000000000000000000000100 8
b00000000000000000000000000000100 9
b00000000000000000000000000000001 :
b00000000000000000000000000000000 ;
b00000000000000000000000000000001 <
b00000000000000000000000000010000 =
b00000000010000000000000001001000 >
b00000111100000000000000000010000 ?
b00000 @
0A
1D
b000000000100000000000000001110 G
b00010001111000000000000000000100 I
b1110 J
0K
b000000000000000000000000000000 N
b00000000000000000000000000000000 O
b111011111111111100000000000000 Q
#140000000
0!
1$
0+
0D
1K
#145000000
1!
0$
b00000000010000000000000000111100 &
b00010000000000010000000000000000 '
b00100101000001000000000000000000 (
bUUUUUUUUUUUUUUUUUUUUUUUUUUUUUUUU *
1+
b00000000010000000000000000111100 -
b00100101000001000000000000000000 .
b00010000000000010000000000000000 /
bUUUUUUUUUUUUUUUUUUUUUUUUUUUUUUUU 1
b00000000010000000000000000111100 4
bUUUUUUUUUUUUUUUUUUUUUUUUUUUUUUUU 5
b00010000000000010000000000000000 6
b00000000010000000000000000111100 7
b00000000000000000000000000000000 8
b00000000000000000000000000000000 9
b00010000000000010000000000000000 :
b00010000000000010000000000000000 <
b00000000000000000000000000000000 =
b00000000010000000000000000111100 >
b00000100000100000000000000000000 ?
b00100 @
1A
1D
b000000000100000000000000001111 G
b00100101000001000000000000000000 I
b1111 J
0K
b000100000000000100000000000000 N
bUUUUUUUUUUUUUUUUUUUUUUUUUUUUUUUU O
b0 Q
#150000000
0!
1$
0+
0D
1K
#155000000
1!
0$
b00000000010000000000000001000000 &
b00010000000000010000000000000100 '
b00100101000001010000000000000100 (
1+
b00000000010000000000000001000000 -
b00100101000001010000000000000100 .
b00010000000000010000000000000100 /
b00000000010000000000000001000000 4
b00010000000000010000000000000100 6
b00000000010000000000000001000000 7
b00000000000000000000000000000100 8
b00000000000000000000000000000100 9
b00000000000000000000000000000100 ;
b00010000000000010000000000000100 <
b00000000000000000000000000010000 =
b00000000010000000000000001010000 >
b00000100000101000000000000010000 ?
b00101 @
1D
b000000000100000000000000010000 G
b00100101000001010000000000000100 I
b10000 J
0K
b000100000000000100000000000001 N
b1 Q
#160000000
0!
1$
0+
0D
1K
#165000000
1!
0$
b00000000010000000000000001010100 &
b00000000000000000000000000010101 '
b00001100000100000000000000010101 (
1+
b00000000010000000000000001010100 -
b00001100000100000000000000010101 .
b00000000000000000000000000010101 /
b00000000010000000000000001000100 4
b00000000010000000000000001000100 6
b00000000010000000000000001010100 7
b00000000000000000000000000010101 8
b00000000000000000000000000010101 9
b00000000000000000000000000000000 :
b00000000000000000000000000010101 ;
b00000000000000000000000000010101 <
b00000000000000000000000001010100 =
b00000000010000000000000010011000 >
b00000000010000000000000001010100 ?
b11111 @
1D
b000000000100000000000000010101 G
b00001100000100000000000000010101 I
b10101 J
0K
b000000000000000000000000000101 N
b111011111111111100000000000101 Q
#170000000
0!
1$
0+
0D
1K
#175000000
1!
1#
0$
b00000000010000000000000001011000 &
b00010000000000010000000000000000 '
b10001100100010010000000000000000 (
b00000000000000000000000000000100 *
1+
b00000000010000000000000001011000 -
b10001100100010010000000000000000 .
b00010000000000010000000000000000 /
b00000000000000000000000000000100 1
12
b00000000010000000000000001011000 4
b00000000000000000000000000000100 5
b00000000000000000000000000000010 6
b00000000010000000000000001011000 7
b00000000000000000000000000000000 8
b00000000000000000000000000000000 9
b00010000000000010000000000000000 :
b00000000000000000000000000000000 ;
b00010000000000010000000000000000 <
b00000000000000000000000000000000 =
b00000000010000000000000001011000 >
b00000010001001000000000000000000 ?
b01001 @
1D
b000000000100000000000000010110 G
b10001100100010010000000000000000 I
b10110 J
0K
1M
b000100000000000100000000000000 N
b00000000000000000000000000000100 O
b0 Q
#180000000
0!
1$
b00000000000000000000000000000100 )
0+
b00000000000000000000000000000100 0
b00000000000000000000000000000100 6
0D
1K
b00000000000000000000000000000100 P
#185000000
1!
0$
b00000000010000000000000001011100 &
b00010000000000010000000000000100 '
b10001100101010100000000000000000 (
b00000000000000000000000000000010 *
1+
b00000000010000000000000001011100 -
b10001100101010100000000000000000 .
b00010000000000010000000000000100 /
b00000000000000000000000000000010 1
b00000000010000000000000001011100 4
b00000000000000000000000000000010 5
b00000000010000000000000001011100 7
b00010000000000010000000000000100 :
b00010000000000010000000000000100 <
b00000000010000000000000001011100 >
b00000010101010000000000000000000 ?
b01010 @
1D
b000000000100000000000000010111 G
b10001100101010100000000000000000 I
b10111 J
0K
b000100000000000100000000000001 N
b00000000000000000000000000000010 O
b1 Q
#190000000
0!
1$
b00000000000000000000000000000010 )
0+
b00000000000000000000000000000010 0
b00000000000000000000000000000010 6
0D
1K
b00000000000000000000000000000010 P
#195000000
1!
0$
b1111 %
b00000000010000000000000001100000 &
b00010000000000010000000000000000 '
b10101100100010100000000000000000 (
1+
b00000000010000000000000001100000 -
b10101100100010100000000000000000 .
b00010000000000010000000000000000 /
b1111 3
b00000000010000000000000001100000 4
b00010000000000010000000000000000 6
b00000000010000000000000001100000 7
b00010000000000010000000000000000 :
b00010000000000010000000000000000 <
b00000000010000000000000001100000 >
b00000010001010000000000000000000 ?
0A
1D
b000000000100000000000000011000 G
b10101100100010100000000000000000 I
b11000 J
0K
b1111 L
b000100000000000100000000000000 N
b0 Q
#200000000
0!
1$
b00000000000000000000000000000100 )
0+
b00000000000000000000000000000100 0
0D
1K
b00000000000000000000000000000100 P
#205000000
1!
0$
b00000000010000000000000001100100 &
b00010000000000010000000000000100 '
b10101100101010010000000000000000 (
b00000000000000000000000000000100 *
1+
b00000000010000000000000001100100 -
b10101100101010010000000000000000 .
b00010000000000010000000000000100 /
b00000000000000000000000000000100 1
b00000000010000000000000001100100 4
b00000000000000000000000000000100 5
b00010000000000010000000000000100 6
b00000000010000000000000001100100 7
b00010000000000010000000000000100 :
b00010000000000010000000000000100 <
b00000000010000000000000001100100 >
b00000010101001000000000000000000 ?
b01001 @
1D
b000000000100000000000000011001 G
b10101100101010010000000000000000 I
b11001 J
0K
b000100000000000100000000000001 N
b00000000000000000000000000000100 O
b1 Q
#210000000
0!
1$
b00000000000000000000000000000010 )
0+
b00000000000000000000000000000010 0
0D
1K
b00000000000000000000000000000010 P
#215000000
1!
0#
0$
b0000 %
b00000000010000000000000001000100 &
b00000000010000000000000001000100 '
b00000011111000000000000000001000 (
b00000000000000000000000000000000 *
1+
b00000000010000000000000001000100 -
b00000011111000000000000000001000 .
b00000000010000000000000001000100 /
b00000000000000000000000000000000 1
02
b0000 3
b00000000010000000000000001101000 4
b00000000000000000000000000000000 5
b00000000010000000000000001000100 6
b00000000010000000000000001000100 7
b00000000000000000000000000001000 8
b00000000000000000000000000001000 9
b00000000010000000000000001000100 :
b00000000000000000000000000000000 ;
b00000000010000000000000001000100 <
b00000000000000000000000000100000 =
b00000000010000000000000010001000 >
b00001111100000000000000000100000 ?
b00000 @
1D
b000000000100000000000000010001 G
b00000011111000000000000000001000 I
b10001 J
0K
b0000 L
0M
b000000000100000000000000010001 N
b00000000000000000000000000000000 O
b111100000011111100000000010001 Q
#220000000
0!
1$
0+
0D
1K
#225000000
1!
0$
b00000000010000000000000001001000 &
b00000000000000000000000000000001 '
b00100100000110000000000000000001 (
1+
b00000000010000000000000001001000 -
b00100100000110000000000000000001 .
b00000000000000000000000000000001 /
b00000000010000000000000001001000 4
b00000000000000000000000000000001 6
b00000000010000000000000001001000 7
b00000000000000000000000000000001 8
b00000000000000000000000000000001 9
b00000000000000000000000000000000 :
b00000000000000000000000000000001 ;
b00000000000000000000000000000001 <
b00000000000000000000000000000100 =
b00000000010000000000000001001100 >
b00000000011000000000000000000100 ?
b11000 @
1A
1D
b000000000100000000000000010010 G
b00100100000110000000000000000001 I
b10010 J
0K
b000000000000000000000000000000 N
b111011111111111100000000000000 Q
#230000000
0!
1$
0+
0D
1K
#235000000
1!
0$
b00000000010000000000000001001100 &
b00010000000000010000000000000100 '
b00100101000010000000000000000100 (
b00010000000000010000000000000000 *
1+
b00000000010000000000000001001100 -
b00100101000010000000000000000100 .
b00010000000000010000000000000100 /
b00010000000000010000000000000000 1
b00000000010000000000000001001100 4
b00010000000000010000000000000000 5
b00010000000000010000000000000100 6
b00000000010000000000000001001100 7
b00000000000000000000000000000100 8
b00000000000000000000000000000100 9
b00010000000000010000000000000000 :
b00000000000000000000000000000100 ;
b00010000000000010000000000000100 <
b00000000000000000000000000010000 =
b00000000010000000000000001011100 >
b00000100001000000000000000010000 ?
b01000 @
1D
b000000000100000000000000010011 G
b00100101000010000000000000000100 I
b10011 J
0K
b000100000000000100000000000001 N
b00010000000000010000000000000000 O
b1 Q
#240000000
0!
1$
0+
0D
1K
#245000000
1!
0$
b00000000010000000000000001010000 &
b00000000000000000000000000001000 '
b00100101110011101111111111111111 (
b00000000000000000000000000001001 *
1+
b00000000010000000000000001010000 -
b00100101110011101111111111111111 .
b00000000000000000000000000001000 /
b00000000000000000000000000001001 1
b00000000010000000000000001010000 4
b00000000000000000000000000001001 5
b00000000000000000000000000001000 6
b00000000010000000000000001010000 7
b11111111111111111111111111111111 8
b00000000000000001111111111111111 9
b00000000000000000000000000001001 :
b11111111111111111111111111111111 ;
b00000000000000000000000000001000 <
b11111111111111111111111111111100 =
b00000000010000000000000001001100 >
b00000111001110111111111111111100 ?
b01110 @
1D
b000000000100000000000000010100 G
b00100101110011101111111111111111 I
b10100 J
0K
b000000000000000000000000000010 N
b00000000000000000000000000001001 O
b111011111111111100000000000010 Q
#250000000
0!
1$
0+
0D
1K
#255000000
1!
0$
b00000000010000000000000000100100 &
b00000000000000000000000000001001 '
b00001000000100000000000000001001 (
bUUUUUUUUUUUUUUUUUUUUUUUUUUUUUUUU *
1+
b00000000010000000000000000100100 -
b00001000000100000000000000001001 .
b00000000000000000000000000001001 /
bUUUUUUUUUUUUUUUUUUUUUUUUUUUUUUUU 1
b00000000010000000000000001010100 4
bUUUUUUUUUUUUUUUUUUUUUUUUUUUUUUUU 5
b00000000000000000000000000001001 6
b00000000010000000000000000100100 7
b00000000000000000000000000001001 8
b00000000000000000000000000001001 9
b00000000000000000000000000000000 :
b00000000000000000000000000001001 ;
b00000000000000000000000000001001 <
b00000000000000000000000000100100 =
b00000000010000000000000001111000 >
b00000000010000000000000000100100 ?
b10000 @
0A
1D
b000000000100000000000000001001 G
b00001000000100000000000000001001 I
b1001 J
0K
b000000000000000000000000000010 N
bUUUUUUUUUUUUUUUUUUUUUUUUUUUUUUUU O
b111011111111111100000000000010 Q
#260000000
0!
1$
0+
0D
1K
#265000000
1!
0$
b00000000010000000000000000101000 &
b00000000000000000000000000001000 '
b00010001110000001111111111110111 (
b00000000000000000000000000000000 *
1+
b00000000010000000000000000101000 -
b00010001110000001111111111110111 .
b00000000000000000000000000001000 /
b00000000000000000000000000000000 1
b00000000010000000000000000101000 4
b00000000000000000000000000000000 5
b00000000000000000000000000001000 6
b00000000010000000000000000101000 7
b11111111111111111111111111110111 8
b00000000000000001111111111110111 9
b00000000000000000000000000001000 :
b00000000000000000000000000000000 ;
b00000000000000000000000000001000 <
b11111111111111111111111111011100 =
b00000000010000000000000000000100 >
b00000111000000111111111111011100 ?
b00000 @
1D
b000000000100000000000000001010 G
b00010001110000001111111111110111 I
b1010 J
0K
b000000000000000000000000000010 N
b00000000000000000000000000000000 O
b111011111111111100000000000010 Q
#270000000
0!
1$
0+
0D
1K
#275000000
1!
1#
0$
b00000000010000000000000000101100 &
b00010000000000010000000000000100 '
b10001101000010010000000000000000 (
b00000000000000000000000000000100 *
1+
b00000000010000000000000000101100 -
b10001101000010010000000000000000 .
b00010000000000010000000000000100 /
b00000000000000000000000000000100 1
12
b00000000010000000000000000101100 4
b00000000000000000000000000000100 5
b00000000000000000000000000000010 6
b00000000010000000000000000101100 7
b00000000000000000000000000000000 8
b00000000000000000000000000000000 9
b00010000000000010000000000000100 :
b00010000000000010000000000000100 <
b00000000000000000000000000000000 =
b00000000010000000000000000101100 >
b00000100001001000000000000000000 ?
b01001 @
1A
1D
b000000000100000000000000001011 G
b10001101000010010000000000000000 I
b1011 J
0K
1M
b000100000000000100000000000001 N
b00000000000000000000000000000100 O
b1 Q
#280000000
0!
1$
b00000000000000000000000000000100 )
0+
b00000000000000000000000000000100 0
b00000000000000000000000000000100 6
0D
1K
b00000000000000000000000000000100 P
#285000000
1!
0$
b00000000010000000000000000110000 &
b00010000000000010000000000001000 '
b10001101000010100000000000000100 (
b00000000000000000000000000000010 *
1+
b00000000010000000000000000110000 -
b10001101000010100000000000000100 .
b00010000000000010000000000001000 /
b00000000000000000000000000000010 1
b00000000010000000000000000110000 4
b00000000000000000000000000000010 5
b00000000010000000000000000110000 7
b00000000000000000000000000000100 8
b00000000000000000000000000000100 9
b00000000000000000000000000000100 ;
b00010000000000010000000000001000 <
b00000000000000000000000000010000 =
b00000000010000000000000001000000 >
b00000100001010000000000000010000 ?
b01010 @
1D
b000000000100000000000000001100 G
b10001101000010100000000000000100 I
b1100 J
0K
b000100000000000100000000000010 N
b00000000000000000000000000000010 O
b10 Q
#290000000
0!
1$
b00000000000000000000000000000001 )
0+
b00000000000000000000000000000001 0
b00000000000000000000000000000001 6
0D
1K
b00000000000000000000000000000001 P
